module todo-list

go 1.22.2

require (
	github.com/joho/godotenv v1.5.1
	github.com/lib/pq v1.10.9
	github.com/swaggo/http-swagger/v2 v2.0.2
	github.com/swaggo/swag v1.16.3
)

require (
	github.com/KyleBanks/depth v1.2.1 // indirect
	github.com/go-openapi/jsonpointer v0.19.5 // indirect
	github.com/go-openapi/jsonreference v0.20.0 // indirect
	github.com/go-openapi/spec v0.20.6 // indirect
	github.com/go-openapi/swag v0.19.15 // indirect
	github.com/josharian/intern v1.0.0 // indirect
	github.com/mailru/easyjson v0.7.6 // indirect
	github.com/swaggo/files/v2 v2.0.0 // indirect
	golang.org/x/sys v0.13.0 // indirect
	golang.org/x/tools v0.7.0 // indirect
	gopkg.in/yaml.v2 v2.4.0 // indirect
)
